\relax 
\catcode `"\active 
\catcode `<\active 
\catcode `>\active 
\@nameuse{es@quoting}
\babel@aux{spanish}{}
\@writefile{toc}{\contentsline {section}{\numberline {1}Estructuras utilizadas}{1}\protected@file@percent }
\@writefile{toc}{\contentsline {section}{\numberline {2}Sub-problemas}{1}\protected@file@percent }
\@writefile{toc}{\contentsline {subsection}{\numberline {2.1}Gr\IeC {\'a}fico}{1}\protected@file@percent }
\@writefile{toc}{\contentsline {section}{\numberline {3}Pseudoc\IeC {\'o}digo}{2}\protected@file@percent }
